floor.img
bricks.img
bricks2.img
stonefloor.img
grating.img
ceiling.img
arch.img
bars.img
ladder.img
grass.img
ceiling.img
ceilingdoor.img
ceilingend.img
europoster.img
cobblestone.img
tapes.img
pdp11.img
electric.img
europoster.img
qbasic.img
truck00.img
truck10.img
truck20.img
truck30.img
truck01.img
truck11.img
truck21.img
truck31.img
table.img
tablepaper.img
hero0.img
noclue.img
