arch.img
bricks2.img
bricks.img
bars.img
ceiling.img
ceilingdoor.img
ceilingend.img
ceilingbars.img
cobblestone.img
doorc.img
floor.img
grass.img
grating.img
ladder.img
wall.img
water.img
stonefloor.img
