grass.img
floor.img
stonefloor.img
ceiling.img
arch.img
bars.img
bricks.img
ceiling.img
ceilingdoor.img
ceilingend.img
ceilingbars.img
cobblestone.img
stone.img
table.img
qbasic.img
hammerwall.img
pedrera2.img
pedrera3.img
bricks2.img
noclue.img
