wall.img
floor.img
bricks.img
stonefloor.img
table.img
ceiling.img
bars.img
grass.img
arch.img
ceilingdoor.img
ceilingend.img
doorc.img
grating.img
ceilingbars.img
clue.img
bricks2.img
cobblestone.img
tapes.img
pdp11.img
hammerwall.img
electric.img
qbasic.img
europoster.img
